"Path","Platform","Compiled","Cooked","Permutations","Compiletime","CompiledDouble","CookedDouble"
"/Engine/EngineMaterials/Widget3DPassThrough.Widget3DPassThrough","0","69","74","6","41.927654","0","0"
"/Paper2D/DefaultSpriteMaterial.DefaultSpriteMaterial","0","56","62","2","34.885250","0","0"
"/Game/Mannequin/Character/Materials/M_Male_Body.M_Male_Body","0","140","152","2","78.268326","0","0"
"Globals","0","2854","0","1","0.000000","0","0"
"/Engine/EngineMaterials/PhAT_JointLimitMaterial.PhAT_JointLimitMaterial","0","15","16","1","10.099006","0","0"
"/Engine/EngineMaterials/GizmoMaterial.GizmoMaterial","0","7","8","1","4.593681","0","0"
"/Engine/EngineMaterials/M_InvalidLightmapSettings.M_InvalidLightmapSettings","0","24","24","1","19.225698","0","0"
"/Engine/EngineMaterials/EmissiveMeshMaterial.EmissiveMeshMaterial","0","10","10","1","6.886020","0","0"
"/Engine/EngineDebugMaterials/DebugMeshMaterial.DebugMeshMaterial","0","10","10","1","6.717834","0","0"
"/Engine/EngineMaterials/RemoveSurfaceMaterial.RemoveSurfaceMaterial","0","2","2","1","1.383586","0","0"
"/Engine/EngineDebugMaterials/M_VolumeRenderSphereTracePP.M_VolumeRenderSphereTracePP","0","4","4","1","8.828281","0","0"
"/SpeedTreeImporter/SpeedTree9/SpeedTreeBillboardMaster.SpeedTreeBillboardMaster","0","66","70","1","74.176788","0","0"
"/SpeedTreeImporter/SpeedTree9/SpeedTreeMaster.SpeedTreeMaster","0","92","96","1","94.413628","0","0"
"/WebBrowserWidget/WebTexture_TM.WebTexture_TM","0","15","15","1","6.860182","0","0"
"/WebBrowserWidget/WebTexture_M.WebTexture_M","0","9","9","1","2.993975","0","0"
"/Engine/EngineDebugMaterials/WireframeMaterial.WireframeMaterial","0","550","598","1","277.055054","0","0"
"/Engine/EngineDebugMaterials/VertexColorMaterial.VertexColorMaterial","0","85","90","1","53.422115","0","0"
"/Engine/EngineMaterials/DefaultMaterial.DefaultMaterial","0","123","123","1","95.802521","0","0"
"/Engine/ArtTools/RenderToTexture/Materials/Debug/M_Emissive_Color.M_Emissive_Color","0","2","2","1","1.434242","0","0"
"/Engine/EngineDebugMaterials/M_SimpleUnlitTranslucent.M_SimpleUnlitTranslucent","0","8","8","1","5.544298","0","0"
"/Engine/EditorMaterials/Camera/CineMat.CineMat","0","24","24","1","18.299641","0","0"
"/Engine/VREditor/TransformGizmo/TranslucentTransformGizmoMaterial.TranslucentTransformGizmoMaterial","0","8","8","1","5.632207","0","0"
"/Engine/VREditor/TransformGizmo/TransformGizmoMaterial.TransformGizmoMaterial","0","2","2","1","1.571081","0","0"
"/Engine/VREditor/TransformGizmo/Xray.Xray","0","12","12","1","10.905062","0","0"
"/Engine/VREditor/TransformGizmo/Main.Main","0","8","8","1","5.846725","0","0"
"/Engine/EngineMaterials/BaseFlattenMaterial.BaseFlattenMaterial","0","49","52","1","35.655354","0","0"
"/Engine/EngineSky/VolumetricClouds/m_SimpleVolumetricCloud.m_SimpleVolumetricCloud","0","44","44","1","83.097725","0","0"
"/Engine/EngineMaterials/DefaultPostProcessMaterial.DefaultPostProcessMaterial","0","6","6","1","2.834193","0","0"
"/Engine/EngineMaterials/DefaultLightFunctionMaterial.DefaultLightFunctionMaterial","0","17","17","1","6.915199","0","0"
"/Engine/EngineMaterials/DefaultDeferredDecalMaterial.DefaultDeferredDecalMaterial","0","115","115","1","102.758820","0","0"
"/Engine/EngineMaterials/WorldGridMaterial.WorldGridMaterial","0","847","871","1","482.080383","0","0"
"/Engine/EngineMaterials/DefaultTextMaterialOpaque.DefaultTextMaterialOpaque","0","33","35","1","21.612276","0","0"
"/Engine/EditorMaterials/PreviewShadowIndicatorMaterial.PreviewShadowIndicatorMaterial","0","17","17","1","7.178652","0","0"
"/Engine/EngineDebugMaterials/DebugEditorMaterial.DebugEditorMaterial","0","7","8","1","4.539641","0","0"
"/Game/ThirdPerson/Meshes/RampMaterial.RampMaterial","0","21","21","1","19.215445","0","0"
"/Engine/EngineSky/M_Sky_Panning_Clouds2.M_Sky_Panning_Clouds2","0","2","2","1","1.686830","0","0"
"/Game/Geometry/Meshes/CubeMaterial.CubeMaterial","0","21","21","1","18.934076","0","0"
