{
	"source": "UE",
	"applications": [
		{
			"app_key": "application.generated.ue.third-person-game-template-0.ue4editor.exe",
			"launch_type": "url",
			"url": "steam://launch/",
			"action_manifest_path": "D:/UE_AWS/MyFirstGameLift/Config/SteamVRBindings/steamvr_manifest.json",
			"strings":
			{
				"en_us":
				{
					"name": "Third Person Game Template-0 [UE Editor]"
				}
			}
		}
	]
}