MyFirstGameLift/Binaries/Win64/MyFirstGameLift.exe	2021-07-29T07:53:49.595Z
MyFirstGameLift/Binaries/Win64/turbojpeg.dll	2021-07-09T04:47:53.909Z
Engine/Extras/Redist/en-us/UE4PrereqSetup_x64.exe	2021-07-09T04:50:14.342Z
Engine/Binaries/ThirdParty/DbgHelp/dbghelp.dll	2021-07-09T04:45:12.712Z
Engine/Binaries/Win64/UnrealCEFSubProcess.exe	2021-07-09T04:42:41.356Z
Engine/Binaries/ThirdParty/PhysX3/Win64/VS2015/PxFoundationPROFILE_x64.dll	2021-07-09T04:46:07.323Z
Engine/Binaries/ThirdParty/PhysX3/Win64/VS2015/PxPvdSDKPROFILE_x64.dll	2021-07-09T04:49:51.555Z
Engine/Binaries/ThirdParty/PhysX3/Win64/VS2015/PhysX3PROFILE_x64.dll	2021-07-09T04:45:11.262Z
Engine/Binaries/ThirdParty/PhysX3/Win64/VS2015/PhysX3CookingPROFILE_x64.dll	2021-07-09T04:45:11.614Z
Engine/Binaries/ThirdParty/PhysX3/Win64/VS2015/PhysX3CommonPROFILE_x64.dll	2021-07-09T04:44:00.753Z
Engine/Binaries/ThirdParty/PhysX3/Win64/VS2015/APEX_ClothingPROFILE_x64.dll	2021-07-09T04:50:21.703Z
Engine/Binaries/ThirdParty/PhysX3/Win64/VS2015/APEX_LegacyPROFILE_x64.dll	2021-07-09T04:47:47.593Z
Engine/Binaries/ThirdParty/PhysX3/Win64/VS2015/ApexFrameworkPROFILE_x64.dll	2021-07-09T04:44:55.007Z
Engine/Binaries/ThirdParty/PhysX3/Win64/VS2015/NvClothPROFILE_x64.dll	2021-07-09T04:45:11.465Z
Engine/Binaries/ThirdParty/Ogg/Win64/VS2015/libogg_64.dll	2021-07-09T04:43:58.739Z
Engine/Binaries/ThirdParty/Vorbis/Win64/VS2015/libvorbis_64.dll	2021-07-09T04:48:17.816Z
Engine/Binaries/ThirdParty/Vorbis/Win64/VS2015/libvorbisfile_64.dll	2021-07-09T04:43:58.769Z
Engine/Binaries/ThirdParty/NVIDIA/NVaftermath/Win64/GFSDK_Aftermath_Lib.x64.dll	2021-07-09T04:44:43.916Z
Engine/Binaries/ThirdParty/Windows/WinPixEventRuntime/x64/WinPixEventRuntime.dll	2021-07-09T04:42:38.884Z
Engine/Binaries/ThirdParty/Windows/XAudio2_9/x64/xaudio2_9redist.dll	2021-07-09T04:49:52.049Z
Engine/Binaries/ThirdParty/CEF3/Win64/chrome_elf.dll	2021-07-09T04:44:33.142Z
Engine/Binaries/ThirdParty/CEF3/Win64/d3dcompiler_43.dll	2021-07-09T04:48:15.856Z
Engine/Binaries/ThirdParty/CEF3/Win64/d3dcompiler_47.dll	2021-07-09T04:45:20.776Z
Engine/Binaries/ThirdParty/CEF3/Win64/libcef.dll	2021-07-09T04:46:09.177Z
Engine/Binaries/ThirdParty/CEF3/Win64/libEGL.dll	2021-07-09T04:45:00.168Z
Engine/Binaries/ThirdParty/CEF3/Win64/libGLESv2.dll	2021-07-09T04:46:59.736Z
Engine/Binaries/ThirdParty/CEF3/Win64/icudtl.dat	2021-07-09T04:45:35.345Z
Engine/Binaries/ThirdParty/CEF3/Win64/natives_blob.bin	2021-07-09T04:45:00.117Z
Engine/Binaries/ThirdParty/CEF3/Win64/snapshot_blob.bin	2021-07-09T04:44:43.877Z
Engine/Binaries/ThirdParty/CEF3/Win64/Resources/cef.pak	2021-07-09T04:50:24.545Z
Engine/Binaries/ThirdParty/CEF3/Win64/Resources/cef_100_percent.pak	2021-07-09T04:46:27.829Z
Engine/Binaries/ThirdParty/CEF3/Win64/Resources/cef_200_percent.pak	2021-07-09T04:46:27.854Z
Engine/Binaries/ThirdParty/CEF3/Win64/Resources/cef_extensions.pak	2021-07-09T04:48:47.945Z
Engine/Binaries/ThirdParty/CEF3/Win64/Resources/devtools_resources.pak	2021-07-09T04:44:59.841Z
Engine/Binaries/ThirdParty/CEF3/Win64/Resources/locales/am.pak	2021-07-09T04:46:27.864Z
Engine/Binaries/ThirdParty/CEF3/Win64/Resources/locales/ar.pak	2021-07-09T04:45:44.327Z
Engine/Binaries/ThirdParty/CEF3/Win64/Resources/locales/bg.pak	2021-07-09T04:45:44.546Z
Engine/Binaries/ThirdParty/CEF3/Win64/Resources/locales/bn.pak	2021-07-09T04:45:44.774Z
Engine/Binaries/ThirdParty/CEF3/Win64/Resources/locales/ca.pak	2021-07-09T04:45:44.868Z
Engine/Binaries/ThirdParty/CEF3/Win64/Resources/locales/cs.pak	2021-07-09T04:45:45.002Z
Engine/Binaries/ThirdParty/CEF3/Win64/Resources/locales/da.pak	2021-07-09T04:45:45.186Z
Engine/Binaries/ThirdParty/CEF3/Win64/Resources/locales/de.pak	2021-07-09T04:45:45.258Z
Engine/Binaries/ThirdParty/CEF3/Win64/Resources/locales/el.pak	2021-07-09T04:44:07.582Z
Engine/Binaries/ThirdParty/CEF3/Win64/Resources/locales/en-GB.pak	2021-07-09T04:44:07.589Z
Engine/Binaries/ThirdParty/CEF3/Win64/Resources/locales/en-US.pak	2021-07-09T04:44:07.603Z
Engine/Binaries/ThirdParty/CEF3/Win64/Resources/locales/es-419.pak	2021-07-09T04:44:07.658Z
Engine/Binaries/ThirdParty/CEF3/Win64/Resources/locales/es.pak	2021-07-09T04:44:07.651Z
Engine/Binaries/ThirdParty/CEF3/Win64/Resources/locales/et.pak	2021-07-09T04:44:07.669Z
Engine/Binaries/ThirdParty/CEF3/Win64/Resources/locales/fa.pak	2021-07-09T04:44:07.676Z
Engine/Binaries/ThirdParty/CEF3/Win64/Resources/locales/fi.pak	2021-07-09T04:44:07.683Z
Engine/Binaries/ThirdParty/CEF3/Win64/Resources/locales/fil.pak	2021-07-09T04:49:26.047Z
Engine/Binaries/ThirdParty/CEF3/Win64/Resources/locales/fr.pak	2021-07-09T04:49:26.057Z
Engine/Binaries/ThirdParty/CEF3/Win64/Resources/locales/gu.pak	2021-07-09T04:49:26.083Z
Engine/Binaries/ThirdParty/CEF3/Win64/Resources/locales/he.pak	2021-07-09T04:49:26.091Z
Engine/Binaries/ThirdParty/CEF3/Win64/Resources/locales/hi.pak	2021-07-09T04:49:26.100Z
Engine/Binaries/ThirdParty/CEF3/Win64/Resources/locales/hr.pak	2021-07-09T04:49:26.107Z
Engine/Binaries/ThirdParty/CEF3/Win64/Resources/locales/hu.pak	2021-07-09T04:44:44.684Z
Engine/Binaries/ThirdParty/CEF3/Win64/Resources/locales/id.pak	2021-07-09T04:49:26.114Z
Engine/Binaries/ThirdParty/CEF3/Win64/Resources/locales/it.pak	2021-07-09T04:44:44.716Z
Engine/Binaries/ThirdParty/CEF3/Win64/Resources/locales/ja.pak	2021-07-09T04:44:44.826Z
Engine/Binaries/ThirdParty/CEF3/Win64/Resources/locales/kn.pak	2021-07-09T04:44:44.835Z
Engine/Binaries/ThirdParty/CEF3/Win64/Resources/locales/ko.pak	2021-07-09T04:44:44.871Z
Engine/Binaries/ThirdParty/CEF3/Win64/Resources/locales/lt.pak	2021-07-09T04:44:44.878Z
Engine/Binaries/ThirdParty/CEF3/Win64/Resources/locales/lv.pak	2021-07-09T04:44:44.901Z
Engine/Binaries/ThirdParty/CEF3/Win64/Resources/locales/ml.pak	2021-07-09T04:43:45.672Z
Engine/Binaries/ThirdParty/CEF3/Win64/Resources/locales/mr.pak	2021-07-09T04:43:45.679Z
Engine/Binaries/ThirdParty/CEF3/Win64/Resources/locales/ms.pak	2021-07-09T04:43:45.685Z
Engine/Binaries/ThirdParty/CEF3/Win64/Resources/locales/nb.pak	2021-07-09T04:43:45.691Z
Engine/Binaries/ThirdParty/CEF3/Win64/Resources/locales/nl.pak	2021-07-09T04:43:45.696Z
Engine/Binaries/ThirdParty/CEF3/Win64/Resources/locales/pl.pak	2021-07-09T04:43:45.702Z
Engine/Binaries/ThirdParty/CEF3/Win64/Resources/locales/pt-BR.pak	2021-07-09T04:44:16.962Z
Engine/Binaries/ThirdParty/CEF3/Win64/Resources/locales/pt-PT.pak	2021-07-09T04:44:17.154Z
Engine/Binaries/ThirdParty/CEF3/Win64/Resources/locales/ro.pak	2021-07-09T04:44:17.161Z
Engine/Binaries/ThirdParty/CEF3/Win64/Resources/locales/ru.pak	2021-07-09T04:44:17.169Z
Engine/Binaries/ThirdParty/CEF3/Win64/Resources/locales/sk.pak	2021-07-09T04:44:17.176Z
Engine/Binaries/ThirdParty/CEF3/Win64/Resources/locales/sl.pak	2021-07-09T04:43:45.857Z
Engine/Binaries/ThirdParty/CEF3/Win64/Resources/locales/sr.pak	2021-07-09T04:44:17.183Z
Engine/Binaries/ThirdParty/CEF3/Win64/Resources/locales/sv.pak	2021-07-09T04:44:17.201Z
Engine/Binaries/ThirdParty/CEF3/Win64/Resources/locales/sw.pak	2021-07-09T04:44:17.218Z
Engine/Binaries/ThirdParty/CEF3/Win64/Resources/locales/ta.pak	2021-07-09T04:43:46.614Z
Engine/Binaries/ThirdParty/CEF3/Win64/Resources/locales/te.pak	2021-07-09T04:43:46.622Z
Engine/Binaries/ThirdParty/CEF3/Win64/Resources/locales/th.pak	2021-07-09T04:43:46.630Z
Engine/Binaries/ThirdParty/CEF3/Win64/Resources/locales/tr.pak	2021-07-09T04:43:46.637Z
Engine/Binaries/ThirdParty/CEF3/Win64/Resources/locales/uk.pak	2021-07-09T04:43:46.645Z
Engine/Binaries/ThirdParty/CEF3/Win64/Resources/locales/vi.pak	2021-07-09T04:47:43.954Z
Engine/Binaries/ThirdParty/CEF3/Win64/Resources/locales/zh-CN.pak	2021-07-09T04:47:43.997Z
Engine/Binaries/ThirdParty/CEF3/Win64/Resources/locales/zh-TW.pak	2021-07-09T04:47:44.003Z
MyFirstGameLift/Config/steamvr_ue_editor_app.json	2021-07-21T07:27:11.414Z
MyFirstGameLift/Config/SteamVRBindings/gamepad.json	2021-07-21T06:28:57.658Z
MyFirstGameLift/Config/SteamVRBindings/holographic_controller.json	2021-07-21T06:28:57.573Z
MyFirstGameLift/Config/SteamVRBindings/hpmotioncontroller.json	2021-07-21T06:28:57.646Z
MyFirstGameLift/Config/SteamVRBindings/indexhmd.json	2021-07-21T06:28:57.647Z
MyFirstGameLift/Config/SteamVRBindings/knuckles.json	2021-07-21T06:28:57.571Z
MyFirstGameLift/Config/SteamVRBindings/oculus_touch.json	2021-07-21T06:28:57.573Z
MyFirstGameLift/Config/SteamVRBindings/rift.json	2021-07-21T06:28:57.648Z
MyFirstGameLift/Config/SteamVRBindings/steamvr_manifest.json	2021-07-21T06:28:57.659Z
MyFirstGameLift/Config/SteamVRBindings/vive.json	2021-07-21T06:28:57.648Z
MyFirstGameLift/Config/SteamVRBindings/vive_controller.json	2021-07-21T06:28:57.571Z
MyFirstGameLift/Config/SteamVRBindings/vive_cosmos_controller.json	2021-07-21T06:28:57.572Z
MyFirstGameLift/Config/SteamVRBindings/vive_pro.json	2021-07-21T06:28:57.648Z
MyFirstGameLift/Config/SteamVRBindings/vive_tracker.json	2021-07-21T06:28:57.649Z
MyFirstGameLift/Config/SteamVRBindings/vive_tracker_camera.json	2021-07-21T06:28:57.649Z
MyFirstGameLift/Config/SteamVRBindings/vive_tracker_chest.json	2021-07-21T06:28:57.657Z
MyFirstGameLift/Config/SteamVRBindings/vive_tracker_handed.json	2021-07-21T06:28:57.658Z
MyFirstGameLift/Config/SteamVRBindings/vive_tracker_keyboard.json	2021-07-21T06:28:57.657Z
MyFirstGameLift/Config/SteamVRBindings/vive_tracker_left_elbow.json	2021-07-21T06:28:57.650Z
MyFirstGameLift/Config/SteamVRBindings/vive_tracker_left_foot.json	2021-07-21T06:28:57.649Z
MyFirstGameLift/Config/SteamVRBindings/vive_tracker_left_knee.json	2021-07-21T06:28:57.653Z
MyFirstGameLift/Config/SteamVRBindings/vive_tracker_left_shoulder.json	2021-07-21T06:28:57.649Z
MyFirstGameLift/Config/SteamVRBindings/vive_tracker_right_elbow.json	2021-07-21T06:28:57.653Z
MyFirstGameLift/Config/SteamVRBindings/vive_tracker_right_foot.json	2021-07-21T06:28:57.649Z
MyFirstGameLift/Config/SteamVRBindings/vive_tracker_right_knee.json	2021-07-21T06:28:57.657Z
MyFirstGameLift/Config/SteamVRBindings/vive_tracker_right_shoulder.json	2021-07-21T06:28:57.650Z
MyFirstGameLift/Config/SteamVRBindings/vive_tracker_waist.json	2021-07-21T06:28:57.649Z
MyFirstGameLift.exe	2021-07-29T09:26:52.659Z
